<?xml version="1.0" encoding="UTF-8" standalone="no"?>
<svg
   width="512"
   height="512"
   viewBox="0 0 135.46666 135.46666"
   version="1.1"
   id="svg8"
   inkscape:version="1.1 (c4e8f9ed74, 2021-05-24)"
   sodipodi:docname="icon.svg"
   inkscape:export-filename="/home/socket/projects/mc-plugins/tfbr/icon.png"
   inkscape:export-xdpi="96"
   inkscape:export-ydpi="96"
   xmlns:inkscape="http://www.inkscape.org/namespaces/inkscape"
   xmlns:sodipodi="http://sodipodi.sourceforge.net/DTD/sodipodi-0.dtd"
   xmlns:xlink="http://www.w3.org/1999/xlink"
   xmlns="http://www.w3.org/2000/svg"
   xmlns:svg="http://www.w3.org/2000/svg"
   xmlns:rdf="http://www.w3.org/1999/02/22-rdf-syntax-ns#"
   xmlns:cc="http://creativecommons.org/ns#"
   xmlns:dc="http://purl.org/dc/elements/1.1/">
  <defs
     id="defs2">
    <linearGradient
       inkscape:collect="always"
       id="linearGradient7810">
      <stop
         style="stop-color:#d8a143;stop-opacity:1;"
         offset="0"
         id="stop7806" />
      <stop
         style="stop-color:#9f7731;stop-opacity:1"
         offset="1"
         id="stop7808" />
    </linearGradient>
    <style
       id="style8567">.cls-1{fill:none;}.cls-2{fill:#fff;}.cls-3{fill:#fa0;}.cls-4{fill:#aaa;}.cls-5{fill:#55f;}.cls-6{fill:#5f5;}.cls-7{fill:#67cbdf;}.cls-8{fill:#f55;}.cls-9{fill:#f5f;}.cls-10{fill:#ff5;}.cls-11{fill:#444;}</style>
    <clipPath
       clipPathUnits="userSpaceOnUse"
       id="clipPath19185">
      <ellipse
         style="fill:#000000;fill-opacity:1;stroke:none;stroke-width:2.11667;stroke-miterlimit:4;stroke-dasharray:none;stroke-opacity:1"
         id="ellipse19187"
         cx="262.82047"
         cy="-151.05249"
         rx="9.8783503"
         ry="6.5854788" />
    </clipPath>
    <linearGradient
       inkscape:collect="always"
       xlink:href="#linearGradient7810"
       id="linearGradient7812"
       x1="880.53333"
       y1="0"
       x2="880.53333"
       y2="135.46666"
       gradientUnits="userSpaceOnUse" />
  </defs>
  <sodipodi:namedview
     id="base"
     pagecolor="#ffffff"
     bordercolor="#666666"
     borderopacity="1.0"
     inkscape:pageopacity="0.0"
     inkscape:pageshadow="2"
     inkscape:zoom="0.35355339"
     inkscape:cx="664.68038"
     inkscape:cy="472.34733"
     inkscape:document-units="px"
     inkscape:current-layer="layer1"
     inkscape:document-rotation="0"
     showgrid="true"
     units="px"
     inkscape:window-width="1920"
     inkscape:window-height="1022"
     inkscape:window-x="0"
     inkscape:window-y="0"
     inkscape:window-maximized="1"
     inkscape:pagecheckerboard="0"
     inkscape:snap-nodes="true"
     inkscape:object-nodes="true"
     inkscape:snap-bbox="false"
     showguides="false"
     inkscape:snap-global="true"
     inkscape:snap-object-midpoints="false"
     inkscape:snap-intersection-paths="false"
     inkscape:snap-grids="true"
     inkscape:bbox-paths="true"
     inkscape:bbox-nodes="true"
     inkscape:snap-bbox-edge-midpoints="true"
     inkscape:snap-bbox-midpoints="true"
     inkscape:snap-others="false"
     inkscape:snap-smooth-nodes="false"
     inkscape:snap-midpoints="false">
    <inkscape:grid
       type="xygrid"
       id="grid6349"
       spacingx="2.1166666"
       spacingy="2.1166666"
       empspacing="4"
       enabled="true"
       dotted="false"
       visible="false" />
  </sodipodi:namedview>
  <metadata
     id="metadata5">
    <rdf:RDF>
      <cc:Work
         rdf:about="">
        <dc:format>image/svg+xml</dc:format>
        <dc:type
           rdf:resource="http://purl.org/dc/dcmitype/StillImage" />
      </cc:Work>
    </rdf:RDF>
  </metadata>
  <g
     inkscape:label="Layer 1"
     inkscape:groupmode="layer"
     id="layer1">
    <g
       id="g9863"
       transform="translate(-812.80006)">
      <circle
         style="fill:url(#linearGradient7812);fill-opacity:1;stroke-width:8.46667;stroke-miterlimit:4;stroke-dasharray:none"
         id="path1110-5-5"
         cx="880.53339"
         cy="67.73333"
         r="67.73333" />
      <g
         id="g25791"
         transform="translate(270.93331)">
        <path
           id="rect16245"
           style="fill:#ffffff;fill-opacity:1;stroke:none;stroke-width:6.35;stroke-miterlimit:4;stroke-dasharray:none;stroke-opacity:1"
           d="m 592.66663,38.099998 v 8.466666 h -2.11666 c -1.17264,0 -2.11667,0.944033 -2.11667,2.116666 v 16.933333 c 0,1.172633 0.94403,2.116666 2.11667,2.116666 h 2.11666 c 3e-5,2.81364 3e-5,5.597171 3e-5,8.466667 3e-5,12.969149 -3e-5,26.293874 -3e-5,38.031444 l 33.86667,0.0686 V 38.099998 Z m 5.29167,52.916664 h 23.28333 c 0.58632,0 1.05833,0.472016 1.05833,1.058333 0,0.586316 -0.47201,1.058333 -1.05833,1.058333 H 597.9583 c -0.58632,0 -1.05833,-0.472017 -1.05833,-1.058333 0,-0.586317 0.47201,-1.058333 1.05833,-1.058333 z m 0,4.233328 h 23.28333 c 0.58632,0 1.05833,0.47202 1.05833,1.05834 0,0.58631 -0.47201,1.058328 -1.05833,1.058328 H 597.9583 c -0.58632,0 -1.05833,-0.472018 -1.05833,-1.058328 0,-0.58632 0.47201,-1.05834 1.05833,-1.05834 z m 0,4.233338 h 23.28333 c 0.58632,0 1.05833,0.47201 1.05833,1.058332 0,0.58632 -0.47201,1.05833 -1.05833,1.05833 H 597.9583 c -0.58632,0 -1.05833,-0.47201 -1.05833,-1.05833 0,-0.586322 0.47201,-1.058332 1.05833,-1.058332 z m 0,4.233332 h 23.28333 c 0.58632,0 1.05833,0.47202 1.05833,1.05833 0,0.58632 -0.47201,1.05834 -1.05833,1.05834 H 597.9583 c -0.58632,0 -1.05833,-0.47202 -1.05833,-1.05834 0,-0.58631 0.47201,-1.05833 1.05833,-1.05833 z m 0,4.23333 h 23.28333 c 0.58632,0 1.05833,0.47202 1.05833,1.05834 0,0.58631 -0.47201,1.05833 -1.05833,1.05833 H 597.9583 c -0.58632,0 -1.05833,-0.47202 -1.05833,-1.05833 0,-0.58632 0.47201,-1.05834 1.05833,-1.05834 z"
           sodipodi:nodetypes="ccssssccccccsssssssssssssssssssssssssssssssssss" />
        <path
           style="fill:none;fill-opacity:1;stroke:#ffffff;stroke-width:4.23333;stroke-linecap:round;stroke-linejoin:miter;stroke-miterlimit:4;stroke-dasharray:none;stroke-opacity:1"
           d="M 618.06664,38.099997 V 21.166669"
           id="path16754" />
      </g>
    </g>
  </g>
</svg>
